%YAML 1.1
%TAG !u! tag:unity3d.com,2011:
--- !u!114 &11400000
MonoBehaviour:
  m_ObjectHideFlags: 0
  m_PrefabParentObject: {fileID: 0}
  m_PrefabInternal: {fileID: 0}
  m_GameObject: {fileID: 0}
  m_Enabled: 1
  m_EditorHideFlags: 0
  m_Script: {fileID: 11500000, guid: 2837ace8dd9b24188aaafe5ee91cad06, type: 3}
  m_Name: WhiteFont
  m_EditorClassIdentifier: 
  letterSprites:
  - {fileID: 21300000, guid: 179085f745e1649cd9ce6d87104e325c, type: 3}
  - {fileID: 21300002, guid: 179085f745e1649cd9ce6d87104e325c, type: 3}
  - {fileID: 21300004, guid: 179085f745e1649cd9ce6d87104e325c, type: 3}
  - {fileID: 21300006, guid: 179085f745e1649cd9ce6d87104e325c, type: 3}
  - {fileID: 21300008, guid: 179085f745e1649cd9ce6d87104e325c, type: 3}
  - {fileID: 21300010, guid: 179085f745e1649cd9ce6d87104e325c, type: 3}
  - {fileID: 21300012, guid: 179085f745e1649cd9ce6d87104e325c, type: 3}
  - {fileID: 21300014, guid: 179085f745e1649cd9ce6d87104e325c, type: 3}
  - {fileID: 21300016, guid: 179085f745e1649cd9ce6d87104e325c, type: 3}
  - {fileID: 21300018, guid: 179085f745e1649cd9ce6d87104e325c, type: 3}
  - {fileID: 21300020, guid: 179085f745e1649cd9ce6d87104e325c, type: 3}
  - {fileID: 21300022, guid: 179085f745e1649cd9ce6d87104e325c, type: 3}
  - {fileID: 21300024, guid: 179085f745e1649cd9ce6d87104e325c, type: 3}
  - {fileID: 21300026, guid: 179085f745e1649cd9ce6d87104e325c, type: 3}
  - {fileID: 21300028, guid: 179085f745e1649cd9ce6d87104e325c, type: 3}
  - {fileID: 21300030, guid: 179085f745e1649cd9ce6d87104e325c, type: 3}
  - {fileID: 21300032, guid: 179085f745e1649cd9ce6d87104e325c, type: 3}
  - {fileID: 21300034, guid: 179085f745e1649cd9ce6d87104e325c, type: 3}
  - {fileID: 21300036, guid: 179085f745e1649cd9ce6d87104e325c, type: 3}
  - {fileID: 21300038, guid: 179085f745e1649cd9ce6d87104e325c, type: 3}
  - {fileID: 21300040, guid: 179085f745e1649cd9ce6d87104e325c, type: 3}
  - {fileID: 21300042, guid: 179085f745e1649cd9ce6d87104e325c, type: 3}
  - {fileID: 21300044, guid: 179085f745e1649cd9ce6d87104e325c, type: 3}
  - {fileID: 21300046, guid: 179085f745e1649cd9ce6d87104e325c, type: 3}
  - {fileID: 21300048, guid: 179085f745e1649cd9ce6d87104e325c, type: 3}
  - {fileID: 21300050, guid: 179085f745e1649cd9ce6d87104e325c, type: 3}
  - {fileID: 21300052, guid: 179085f745e1649cd9ce6d87104e325c, type: 3}
  - {fileID: 21300054, guid: 179085f745e1649cd9ce6d87104e325c, type: 3}
  - {fileID: 21300056, guid: 179085f745e1649cd9ce6d87104e325c, type: 3}
  - {fileID: 21300058, guid: 179085f745e1649cd9ce6d87104e325c, type: 3}
  - {fileID: 21300060, guid: 179085f745e1649cd9ce6d87104e325c, type: 3}
  - {fileID: 21300062, guid: 179085f745e1649cd9ce6d87104e325c, type: 3}
  - {fileID: 21300064, guid: 179085f745e1649cd9ce6d87104e325c, type: 3}
  - {fileID: 21300066, guid: 179085f745e1649cd9ce6d87104e325c, type: 3}
  - {fileID: 21300068, guid: 179085f745e1649cd9ce6d87104e325c, type: 3}
  - {fileID: 21300070, guid: 179085f745e1649cd9ce6d87104e325c, type: 3}
  - {fileID: 21300072, guid: 179085f745e1649cd9ce6d87104e325c, type: 3}
  - {fileID: 21300074, guid: 179085f745e1649cd9ce6d87104e325c, type: 3}
  - {fileID: 21300076, guid: 179085f745e1649cd9ce6d87104e325c, type: 3}
  - {fileID: 21300078, guid: 179085f745e1649cd9ce6d87104e325c, type: 3}
  - {fileID: 21300080, guid: 179085f745e1649cd9ce6d87104e325c, type: 3}
  - {fileID: 21300082, guid: 179085f745e1649cd9ce6d87104e325c, type: 3}
  - {fileID: 21300084, guid: 179085f745e1649cd9ce6d87104e325c, type: 3}
  - {fileID: 21300086, guid: 179085f745e1649cd9ce6d87104e325c, type: 3}
  - {fileID: 21300088, guid: 179085f745e1649cd9ce6d87104e325c, type: 3}
  - {fileID: 21300090, guid: 179085f745e1649cd9ce6d87104e325c, type: 3}
  - {fileID: 21300092, guid: 179085f745e1649cd9ce6d87104e325c, type: 3}
  - {fileID: 21300094, guid: 179085f745e1649cd9ce6d87104e325c, type: 3}
  - {fileID: 21300096, guid: 179085f745e1649cd9ce6d87104e325c, type: 3}
  - {fileID: 21300098, guid: 179085f745e1649cd9ce6d87104e325c, type: 3}
  - {fileID: 21300100, guid: 179085f745e1649cd9ce6d87104e325c, type: 3}
  - {fileID: 21300102, guid: 179085f745e1649cd9ce6d87104e325c, type: 3}
  - {fileID: 21300104, guid: 179085f745e1649cd9ce6d87104e325c, type: 3}
  - {fileID: 21300106, guid: 179085f745e1649cd9ce6d87104e325c, type: 3}
  - {fileID: 21300108, guid: 179085f745e1649cd9ce6d87104e325c, type: 3}
  - {fileID: 21300110, guid: 179085f745e1649cd9ce6d87104e325c, type: 3}
  - {fileID: 21300112, guid: 179085f745e1649cd9ce6d87104e325c, type: 3}
  - {fileID: 21300114, guid: 179085f745e1649cd9ce6d87104e325c, type: 3}
  - {fileID: 21300116, guid: 179085f745e1649cd9ce6d87104e325c, type: 3}
  - {fileID: 21300118, guid: 179085f745e1649cd9ce6d87104e325c, type: 3}
  - {fileID: 21300120, guid: 179085f745e1649cd9ce6d87104e325c, type: 3}
  - {fileID: 21300122, guid: 179085f745e1649cd9ce6d87104e325c, type: 3}
  - {fileID: 21300124, guid: 179085f745e1649cd9ce6d87104e325c, type: 3}
  - {fileID: 21300126, guid: 179085f745e1649cd9ce6d87104e325c, type: 3}
  - {fileID: 21300128, guid: 179085f745e1649cd9ce6d87104e325c, type: 3}
  - {fileID: 21300130, guid: 179085f745e1649cd9ce6d87104e325c, type: 3}
  - {fileID: 21300132, guid: 179085f745e1649cd9ce6d87104e325c, type: 3}
  - {fileID: 21300134, guid: 179085f745e1649cd9ce6d87104e325c, type: 3}
  - {fileID: 21300136, guid: 179085f745e1649cd9ce6d87104e325c, type: 3}
  - {fileID: 21300138, guid: 179085f745e1649cd9ce6d87104e325c, type: 3}
  - {fileID: 21300140, guid: 179085f745e1649cd9ce6d87104e325c, type: 3}
  - {fileID: 21300142, guid: 179085f745e1649cd9ce6d87104e325c, type: 3}
  - {fileID: 21300144, guid: 179085f745e1649cd9ce6d87104e325c, type: 3}
  - {fileID: 21300146, guid: 179085f745e1649cd9ce6d87104e325c, type: 3}
  - {fileID: 21300148, guid: 179085f745e1649cd9ce6d87104e325c, type: 3}
  - {fileID: 21300150, guid: 179085f745e1649cd9ce6d87104e325c, type: 3}
  - {fileID: 21300152, guid: 179085f745e1649cd9ce6d87104e325c, type: 3}
  - {fileID: 21300154, guid: 179085f745e1649cd9ce6d87104e325c, type: 3}
  - {fileID: 21300156, guid: 179085f745e1649cd9ce6d87104e325c, type: 3}
  - {fileID: 21300158, guid: 179085f745e1649cd9ce6d87104e325c, type: 3}
  - {fileID: 21300160, guid: 179085f745e1649cd9ce6d87104e325c, type: 3}
  - {fileID: 21300162, guid: 179085f745e1649cd9ce6d87104e325c, type: 3}
  - {fileID: 21300164, guid: 179085f745e1649cd9ce6d87104e325c, type: 3}
  - {fileID: 21300166, guid: 179085f745e1649cd9ce6d87104e325c, type: 3}
  - {fileID: 21300168, guid: 179085f745e1649cd9ce6d87104e325c, type: 3}
  - {fileID: 21300170, guid: 179085f745e1649cd9ce6d87104e325c, type: 3}
  - {fileID: 21300172, guid: 179085f745e1649cd9ce6d87104e325c, type: 3}
  - {fileID: 21300174, guid: 179085f745e1649cd9ce6d87104e325c, type: 3}
  - {fileID: 21300176, guid: 179085f745e1649cd9ce6d87104e325c, type: 3}
  - {fileID: 21300178, guid: 179085f745e1649cd9ce6d87104e325c, type: 3}
  - {fileID: 21300180, guid: 179085f745e1649cd9ce6d87104e325c, type: 3}
  - {fileID: 21300182, guid: 179085f745e1649cd9ce6d87104e325c, type: 3}
  - {fileID: 21300184, guid: 179085f745e1649cd9ce6d87104e325c, type: 3}
  - {fileID: 21300186, guid: 179085f745e1649cd9ce6d87104e325c, type: 3}
  - {fileID: 21300188, guid: 179085f745e1649cd9ce6d87104e325c, type: 3}
  - {fileID: 21300190, guid: 179085f745e1649cd9ce6d87104e325c, type: 3}
  - {fileID: 21300192, guid: 179085f745e1649cd9ce6d87104e325c, type: 3}
  - {fileID: 21300194, guid: 179085f745e1649cd9ce6d87104e325c, type: 3}
  - {fileID: 21300196, guid: 179085f745e1649cd9ce6d87104e325c, type: 3}
  - {fileID: 21300198, guid: 179085f745e1649cd9ce6d87104e325c, type: 3}
  - {fileID: 21300200, guid: 179085f745e1649cd9ce6d87104e325c, type: 3}
  - {fileID: 21300202, guid: 179085f745e1649cd9ce6d87104e325c, type: 3}
  - {fileID: 21300204, guid: 179085f745e1649cd9ce6d87104e325c, type: 3}
  - {fileID: 21300206, guid: 179085f745e1649cd9ce6d87104e325c, type: 3}
  - {fileID: 21300208, guid: 179085f745e1649cd9ce6d87104e325c, type: 3}
  - {fileID: 21300210, guid: 179085f745e1649cd9ce6d87104e325c, type: 3}
  - {fileID: 21300212, guid: 179085f745e1649cd9ce6d87104e325c, type: 3}
  - {fileID: 21300214, guid: 179085f745e1649cd9ce6d87104e325c, type: 3}
  - {fileID: 21300216, guid: 179085f745e1649cd9ce6d87104e325c, type: 3}
  - {fileID: 21300218, guid: 179085f745e1649cd9ce6d87104e325c, type: 3}
  - {fileID: 21300220, guid: 179085f745e1649cd9ce6d87104e325c, type: 3}
  - {fileID: 21300222, guid: 179085f745e1649cd9ce6d87104e325c, type: 3}
  - {fileID: 21300224, guid: 179085f745e1649cd9ce6d87104e325c, type: 3}
  - {fileID: 21300226, guid: 179085f745e1649cd9ce6d87104e325c, type: 3}
  - {fileID: 21300228, guid: 179085f745e1649cd9ce6d87104e325c, type: 3}
  - {fileID: 21300230, guid: 179085f745e1649cd9ce6d87104e325c, type: 3}
  - {fileID: 21300232, guid: 179085f745e1649cd9ce6d87104e325c, type: 3}
  - {fileID: 21300234, guid: 179085f745e1649cd9ce6d87104e325c, type: 3}
  letterCode: ' !"#$%&''()*+,-./0123456789:;<=>?@abcdefghijklmnopqrstuvwxyz[\]^_ABCDEFGHIJKLMNOPQRSTUVWXYZ{|}~'
