%YAML 1.1
%TAG !u! tag:unity3d.com,2011:
--- !u!114 &11400000
MonoBehaviour:
  m_ObjectHideFlags: 0
  m_PrefabParentObject: {fileID: 0}
  m_PrefabInternal: {fileID: 0}
  m_GameObject: {fileID: 0}
  m_Enabled: 1
  m_EditorHideFlags: 0
  m_Script: {fileID: 11500000, guid: 71879338f38784ff486183e9796ac28f, type: 3}
  m_Name: Warrior
  m_EditorClassIdentifier: 
  name: Warrior
  description: An enraged warrior, deals heavy damage!
  portrait: {fileID: 21300000, guid: 9b7dcfafa49f24633b7b82eacd7b7c13, type: 3}
  element: 0
  stats: {fileID: 11400000, guid: 76812057f243b451fb55ae47b500a3bb, type: 2}
  prefab: {fileID: 1307992034815250, guid: c99979748089e45daaea3da30ce480e1, type: 2}
  attacks:
  - animation: Attack1
    attackData: {fileID: 11400000, guid: bdf3aec91fefa4295aa68fad2eabded0, type: 2}
